{
  "update.showReleaseNotes": false,
  "workbench.tips.enabled": false,
  "workbench.enableExperiments": false,
  "workbench.settings.enableNaturalLanguageSearch": false,
  "workbench.startupEditor": "readme",
  "workbench.tree.renderIndentGuides": "always",
  "window.titleBarStyle": "custom",
  "window.autoDetectColorScheme": true,
  "editor.formatOnSave": true,
  "editor.fontFamily": "'Fira Code'",
  "editor.fontLigatures": "'ss02', 'ss03', 'ss05', 'cv02', 'cv04', 'cv14', 'calt'",
  "editor.bracketPairColorization.enabled": true,
  "editor.defaultFormatter": "esbenp.prettier-vscode",
  "editor.mouseWheelZoom": true,
  "editor.renderLineHighlight": "all",
  "editor.suggest.preview": true,
  "files.eol": "\n",
  "security.workspace.trust.untrustedFiles": "open",
  "svg.preview.mode": "svg",
  "workbench.preferredLightColorTheme": "Default Dark Modern",
  "workbench.iconTheme": "vs-minimal"
}
